﻿过,guo4,pass; spend; grammatical particle
得,de,achieve (pro. de2); must; be obligated to (pro. dei3); grammatical particle
姐,jie3,older sister; miss; ms.
到,dao4,to; arrive to; go to; visit
谢,xie4,thanks; to thank
边,bian1,side
出,chu1,to go; to travel; to leave; exit
去,qu4,to go away; to leave
都,dou1,all
觉,jue2,to feel; to sense
意,yi4,reason; intent
思,si1,thought; to think
喜,xi3,happiness; to like
欢,huan1,happy; happiness; to make happy; to gladden
已,yi3,already
经,jing1,to pass
但,dan4,but; however
家,jia1,family; home
成,cheng2,to become
为,wei2,to be; to consist of
等,deng3,to wait; etc; among others
狗,gou3,dog
听,ting1,to hear; to listen
爱,ai4,to love; love
前,qian2,before; in front of
电,dian4,electricity
影,ying3,shadow
如,ru2,such as
部,bu4,department; measure word for film
错,cuo4,wrong
第,di4,character marking ordering of things; e.g. number one
代,dai4,generation; to replace
导,dao3,to lead
演,yan3,to play; to setup a play or movie
懂,dong3,to understand
内,nei4,inside
容,rong2,to contain; to allow; to tolerate
忘,wang4,to forget
而,er2,in addition; under these circumstances
且,qie3,also; in addition
较,jiao4,relatively; somewhat
话,hua4,speech; language; dialect
办,ban4,to arrange; to take care of
法,fa3,law; way; method
长,chang2,long; to grow (pro. zhang3)
受,shou3,to receive
迎,ying2,to welcome; to receive
近,jin4,near; close to
租,zu1,to rent
车,che1,vehicle; car; cart
机,ji1,machine
发,fa1,to start; to develop
音,yin1,sound
普,pu3,general; public; universal
通,tong1,pass through; understand
直,zhi2,straight
接,jie1,receive; meet; connect
希,xi1,hope; rare
望,wang4,view; gaze; look towards; expect
定,ding4,fix; set; decide
呆,dai1,spend (time); stay
江,jiang1,river
把,ba3,take; grasp; grammatical helping word used to place certain objects before certain verbs
包,bao1,bag; package; to pack
公,gong1,public; common
记,ji4,note; take note; remember
面,mian4,surface; face; side
信,xin4,trust; believe; faith; letter
吃,chi1,to eat
饭,fan4,food; cooked rice
饿,e4,hungry
怕,pa4,fear; to be afraid
菜,cai4,food; dish
请,qing2,feeling; situation
被,bei4,passive marker; introduces the agent in passive sentence structures
严,yan2,serious; severe
重,zhong4,heavy
送,song4,send; give
医,yi1,treatment; medicine
院,yuan4,institution; hospital; college
检,jian3,examine; inspect
查,cha2,research; check; investigate
安,an1,calm; quiet; peace
结,jie2,fasten together; bind
果,guo3,fruit; result
本,ben3,root; volume
死,si3,die; dead
敢,gan3,dare
复,fu4,again
告,gao4,inform; tell
诉,su4,tell; recount; story
坏,huai4,bad; to break
分,fen1,to divide; border
回,hui2,return; go back
让,rang4,to let; to beg; introduces the agent in passive sentence structures
帮,bang1,to help
助,zhu4,to help; to assist; to aid
忙,mang2,to be busy; to hurry
文,wen2,text; language
间,jian1,between; among; in; room
做,zuo4,do; make; produce
始,shi3,begin; beginning
感,gan3,feel; sense; touch
非,fei1,non-; un-; (is) not
常,chang2,often; common
用,yong4,use; with
言,yan2,language; speech
因,yin1,because; reason; cause
读,du2,read
快,kuai4,fast; sharp
主,zhu3,main; primary
问,wen4,ask
就,jiu4,then; if... then...
古,gu3,ancient; old
慢,man4,slow
给,gei3,give; to; for
自,zi4,self; from
己,ji3,self
社,she4,society; group; organisation
里,li3,in; inside
特,te4,special; particular
别,bie2,do not; other; another
全,quan2,whole; entire; all
研,yan2,research; study; grind
究,jiu1,investigate
历,li4,pass through; undergo
史,shi3,history
趣,qu4,interest; interesting
专,zhuan1,special; particular
业,ye4,profession; business; enterprise
战,zhan4,war
争,zheng1,fight
无,wu2,no; not; synonymous with 没有
笑,xiao4,laugh; smile
关,guan1,close; shut; turn off; concerning
于,yu2,in; on; at; archaic chinese synonym for 在
书,shu1,book
些,xie1,some; few; several
教,jiao4,educate; education
坐,zuo4,sit
讲,jiang3,speak; explain
工,gong1,work
骄,jiao1,proud
傲,ao4,proud
从,cong2,from; follow; obey
真,zhen1,true; real
写,xie3,write
先,xian1,first
年,nian2,year